2:-0.6220643514375022 6:-0.9980648199058813 8:0.8339619124578388 9:-0.5023573171145873|1:0.5349351778068747 2:-0.6810243992237364 4:-0.5754396723377277 5:-0.0739729377412599|-0.8270125312414403
1:-0.9723529749133701 2:-0.2830131205689833 3:0.08651050158601237 4:0.46823432290530476 7:-0.7458107343970902 8:0.6912881378831803 10:0.9109489737043084 11:0.9052862954162342 12:-0.00391621947740628 13:0.4176051993466541|0:0.77886435984136 1:0.6542458361335883 3:0.252151339715325 4:-0.5087259081616002 5:0.4172594957055409|0.8741642324694392
0:0.03798595876456701 2:-0.8260961207015789 3:-0.9174214822258757 4:0.18622705591691457 5:0.9032951809936662 6:0.5772259098035926 7:0.8726560806772401 8:0.42172907005235594 9:0.45381153744968805 10:-0.48756650647043476 13:0.9913604526590776|3:0.43841455376961935|0.3298456879170677
2:-0.6862149533851793 3:0.7806732264910667 4:-0.14857473449038694 5:0.16196876614528377 6:0.9292014746256312 7:-0.25889117792665106 8:0.7598804628021161 10:-0.8993228092083795 11:-0.7628079569231585 12:0.3837766810582848|0:-0.1777721272276157 3:-0.6833286288482437 4:-0.4565710578860702|0.25999104138645457
3:0.01742708838870155|0:-0.044160919135185495 1:-0.4993433554372765 2:-0.20647605040850703 3:-0.3998174595897994 4:0.15972773830164866|-0.9160085692801045
7:0.26840901892928337|4:0.9476631367691641|0.1661505975577542
0:-0.9365900151165035 1:0.9262689779030702 2:-0.49035909057560945 3:0.4584184849064086 5:-0.8610303630198622 6:0.42095819236080256 7:0.3176462449574391 8:-0.6491964915469768 9:-0.7046044741173683 11:-0.7820560937009743 12:-0.34964248249135454 13:-0.43839124043430644|1:0.21617067514458488 2:-0.46575515477634444 3:0.9843259057746943 4:-0.6666907826213273|0.5865079762419085
2:0.9683002152727387 4:0.9063932454942059 5:-0.550426796552519 6:-0.9609514401616068 7:-0.24751304733817014 9:-0.6452867464779595 10:0.10120697753842989 13:0.72483320306109|0:-0.40853902703617373 2:-0.015026902326570779 4:0.24276700588984101|0.10946105668685124
0:0.5218827936822208 8:-0.7170747958431611 9:-0.1367976651410121 11:0.9261734244155371 13:-0.8086084623096299|0:-0.8210964355574648 4:-0.9438413978595833|-0.718636067112512
5:0.6351933382156638 11:0.41896348554012386|0:-0.9345536519912521|-0.43634749170657705
0:0.47175531560077366 4:-0.5144099945688732 8:0.7299388233141506 10:0.9363171844354818|0:0.11615790965548611 1:-0.7314108757444033 2:0.8962817309044127 3:-0.04085870537430025 4:-0.9830379814897189 5:0.818151596614987|-0.9624333943951198
13:0.9855281756299588|2:0.5059103798980242|0.38382735222377407
0:0.8819401445196502 1:-0.5449194396612826 2:-0.9985386541386109 3:-0.7957881984332608 4:0.32154580602238036 7:0.9886776896582576 8:-0.664751225928049 9:0.808960325802103 10:0.48533596275520985 11:-0.30813923670018895 12:0.18185815737778666 13:0.7931654230260152|0:-0.5217985804053227 1:0.6599800343907227 2:-0.9906029577898166 3:0.07481850365141263 4:0.06357297326529765 5:-0.21177109105170633|0.9624007177353127
0:-0.33968733012751884 1:0.5931360185223533 5:-0.42691460500733835 6:-0.20938390272274332 9:0.23136434467713607 10:-0.479983558562028 13:0.5964583244706974|0:0.7635548572250523 3:-0.17439993775191964 4:0.9816581670184654|-0.018943979010520362
0:-0.28630721847491103 6:-0.01469139119123164 10:0.7531223266385443 12:-0.3325027131068824 13:-0.7954189682767113|1:-0.2968185227295078 2:0.31260836696169836 3:-0.344142893833831|-0.13345899526769656
0:-0.24486797213531086 3:-0.22503979674467145 8:0.748605315153416|4:0.7427927388228985|0.3777620349400781
5:0.6351933382156638 11:0.41896348554012386|0:-0.9345536519912521|-0.43634749170657705
0:0.47175531560077366 4:-0.5144099945688732 8:0.7299388233141506 10:0.9363171844354818|0:0.11615790965548611 1:-0.7314108757444033 2:0.8962817309044127 3:-0.04085870537430025 4:-0.9830379814897189 5:0.818151596614987|-0.9624333943951198
13:0.9855281756299588|2:0.5059103798980242|0.38382735222377407
0:0.8819401445196502 1:-0.5449194396612826 2:-0.9985386541386109 3:-0.7957881984332608 4:0.32154580602238036 7:0.9886776896582576 8:-0.664751225928049 9:0.808960325802103 10:0.48533596275520985 11:-0.30813923670018895 12:0.18185815737778666 13:0.7931654230260152|0:-0.5217985804053227 1:0.6599800343907227 2:-0.9906029577898166 3:0.07481850365141263 4:0.06357297326529765 5:-0.21177109105170633|0.9624007177353127
0:-0.33968733012751884 1:0.5931360185223533 5:-0.42691460500733835 6:-0.20938390272274332 9:0.23136434467713607 10:-0.479983558562028 13:0.5964583244706974|0:0.7635548572250523 3:-0.17439993775191964 4:0.9816581670184654|-0.018943979010520362
0:-0.28630721847491103 6:-0.01469139119123164 10:0.7531223266385443 12:-0.3325027131068824 13:-0.7954189682767113|1:-0.2968185227295078 2:0.31260836696169836 3:-0.344142893833831|-0.13345899526769656
0:-0.24486797213531086 3:-0.22503979674467145 8:0.748605315153416|4:0.7427927388228985|0.3777620349400781
5:0.6351933382156638 11:0.41896348554012386|0:-0.9345536519912521|-0.43634749170657705
0:0.47175531560077366 4:-0.5144099945688732 8:0.7299388233141506 10:0.9363171844354818|0:0.11615790965548611 1:-0.7314108757444033 2:0.8962817309044127 3:-0.04085870537430025 4:-0.9830379814897189 5:0.818151596614987|-0.9624333943951198
13:0.9855281756299588|2:0.5059103798980242|0.38382735222377407
0:0.8819401445196502 1:-0.5449194396612826 2:-0.9985386541386109 3:-0.7957881984332608 4:0.32154580602238036 7:0.9886776896582576 8:-0.664751225928049 9:0.808960325802103 10:0.48533596275520985 11:-0.30813923670018895 12:0.18185815737778666 13:0.7931654230260152|0:-0.5217985804053227 1:0.6599800343907227 2:-0.9906029577898166 3:0.07481850365141263 4:0.06357297326529765 5:-0.21177109105170633|0.9624007177353127
0:-0.33968733012751884 1:0.5931360185223533 5:-0.42691460500733835 6:-0.20938390272274332 9:0.23136434467713607 10:-0.479983558562028 13:0.5964583244706974|0:0.7635548572250523 3:-0.17439993775191964 4:0.9816581670184654|-0.018943979010520362
0:-0.28630721847491103 6:-0.01469139119123164 10:0.7531223266385443 12:-0.3325027131068824 13:-0.7954189682767113|1:-0.2968185227295078 2:0.31260836696169836 3:-0.344142893833831|-0.13345899526769656
0:-0.24486797213531086 3:-0.22503979674467145 8:0.748605315153416|4:0.7427927388228985|0.3777620349400781
0:0.5927990445887867 1:-0.6492498314490349 2:0.1590399332794321 3:0.9622653190279244 4:-0.8468430397855429 5:-0.2864303703398746 6:0.5700742483572219 7:-0.017238007167823977 8:-0.48899478169994426 9:-0.8812999466191201 10:0.7226466060129666 11:0.007350370103574422 12:-0.399248988928123 13:-0.6138762137655439|3:0.3979190814978193|-0.859491690567705
1:0.5994833273543954 2:0.030080241283796383 3:-0.28700774206460455 4:-0.3217162863913726 5:0.029800560771280793 6:-0.42499043875079734 7:0.19916672081149245 8:-0.4214407973405563 9:0.8253814478369674 10:-0.27464163438714373 11:-0.8718779914260919 12:-0.4924269177123969 13:-0.1417299960903825|0:-0.9179349811174942 1:-0.7212237312961848 2:-0.27294572631282943 3:0.7618223256074894 4:0.6858118933802888 5:-0.06957619448596641|-0.747459862588054
12:-0.33738492054476743 13:0.6618209092292218|0:-0.8479963136955642 2:0.17195645956349792 3:0.3683447795266024 5:0.2496735045143501|0.7677745294923495
2:-0.24317559943375722 5:-0.3931571602372599 6:0.17185625380338365 8:-0.012803035601467116 9:-0.7350538043219195 10:-0.5640179555025213 11:0.7817941016631658 12:-0.6246359581632819 13:-0.12857097165343434|0:0.08710206517256402 1:0.6815693547144812 2:-0.9853511573728408 3:0.6599824897615543 4:0.7912579466627714 5:-0.9619034703526896|0.07176788598789563
0:0.6394348009793882 1:-0.7781052682129285 2:0.18567863050486877 3:0.9568248452936299 4:-0.7266181139893921 5:-0.8062359432523798 6:0.07726156896585512 9:0.7591662304984497 10:0.6341299734350843 11:0.9768699542131745 12:-0.14287215976630896 13:-0.11634548076662243|1:-0.6346739327637445|0.6916345665865473
0:-0.44995504456450996 1:-0.30339243973603336 2:-0.2755381489323664 3:-0.22648351776422304 4:0.9304582231777518 5:0.5268612009588944 6:-0.572499971473113 7:0.6860180917101497 8:0.9929562333197357 9:-0.1917854981223187 10:-0.7763413292961279 11:-0.5301365755150613 12:-0.785264043002986 13:0.9931234770331288|0:-0.8261990804337679 1:-0.435559383352906 2:0.15628787971359004 4:0.4594487769653015 5:-0.18511598328651102|-0.4270964714869998
9:0.913874297278632 10:-0.0016150711317372002|0:0.3012339673767004 2:-0.4993056519651802 4:0.1302962926287301 5:0.12242894337702515|0.2203212335051834
5:0.6351933382156638 11:0.41896348554012386|0:-0.9345536519912521|-0.43634749170657705
0:0.47175531560077366 4:-0.5144099945688732 8:0.7299388233141506 10:0.9363171844354818|0:0.11615790965548611 1:-0.7314108757444033 2:0.8962817309044127 3:-0.04085870537430025 4:-0.9830379814897189 5:0.818151596614987|-0.9624333943951198
13:0.9855281756299588|2:0.5059103798980242|0.38382735222377407
0:0.8819401445196502 1:-0.5449194396612826 2:-0.9985386541386109 3:-0.7957881984332608 4:0.32154580602238036 7:0.9886776896582576 8:-0.664751225928049 9:0.808960325802103 10:0.48533596275520985 11:-0.30813923670018895 12:0.18185815737778666 13:0.7931654230260152|0:-0.5217985804053227 1:0.6599800343907227 2:-0.9906029577898166 3:0.07481850365141263 4:0.06357297326529765 5:-0.21177109105170633|0.9624007177353127
0:-0.33968733012751884 1:0.5931360185223533 5:-0.42691460500733835 6:-0.20938390272274332 9:0.23136434467713607 10:-0.479983558562028 13:0.5964583244706974|0:0.7635548572250523 3:-0.17439993775191964 4:0.9816581670184654|-0.018943979010520362
0:-0.28630721847491103 6:-0.01469139119123164 10:0.7531223266385443 12:-0.3325027131068824 13:-0.7954189682767113|1:-0.2968185227295078 2:0.31260836696169836 3:-0.344142893833831|-0.13345899526769656
5:0.6351933382156638 11:0.41896348554012386|0:-0.9345536519912521|-0.43634749170657705
0:0.47175531560077366 4:-0.5144099945688732 8:0.7299388233141506 10:0.9363171844354818|0:0.11615790965548611 1:-0.7314108757444033 2:0.8962817309044127 3:-0.04085870537430025 4:-0.9830379814897189 5:0.818151596614987|-0.9624333943951198
13:0.9855281756299588|2:0.5059103798980242|0.38382735222377407
0:0.8819401445196502 1:-0.5449194396612826 2:-0.9985386541386109 3:-0.7957881984332608 4:0.32154580602238036 7:0.9886776896582576 8:-0.664751225928049 9:0.808960325802103 10:0.48533596275520985 11:-0.30813923670018895 12:0.18185815737778666 13:0.7931654230260152|0:-0.5217985804053227 1:0.6599800343907227 2:-0.9906029577898166 3:0.07481850365141263 4:0.06357297326529765 5:-0.21177109105170633|0.9624007177353127
0:-0.33968733012751884 1:0.5931360185223533 5:-0.42691460500733835 6:-0.20938390272274332 9:0.23136434467713607 10:-0.479983558562028 13:0.5964583244706974|0:0.7635548572250523 3:-0.17439993775191964 4:0.9816581670184654|-0.018943979010520362
0:-0.28630721847491103 6:-0.01469139119123164 10:0.7531223266385443 12:-0.3325027131068824 13:-0.7954189682767113|1:-0.2968185227295078 2:0.31260836696169836 3:-0.344142893833831|-0.13345899526769656
5:0.6351933382156638 11:0.41896348554012386|0:-0.9345536519912521|-0.43634749170657705
0:0.47175531560077366 4:-0.5144099945688732 8:0.7299388233141506 10:0.9363171844354818|0:0.11615790965548611 1:-0.7314108757444033 2:0.8962817309044127 3:-0.04085870537430025 4:-0.9830379814897189 5:0.818151596614987|-0.9624333943951198
13:0.9855281756299588|2:0.5059103798980242|0.38382735222377407
0:0.8819401445196502 1:-0.5449194396612826 2:-0.9985386541386109 3:-0.7957881984332608 4:0.32154580602238036 7:0.9886776896582576 8:-0.664751225928049 9:0.808960325802103 10:0.48533596275520985 11:-0.30813923670018895 12:0.18185815737778666 13:0.7931654230260152|0:-0.5217985804053227 1:0.6599800343907227 2:-0.9906029577898166 3:0.07481850365141263 4:0.06357297326529765 5:-0.21177109105170633|0.9624007177353127
0:-0.33968733012751884 1:0.5931360185223533 5:-0.42691460500733835 6:-0.20938390272274332 9:0.23136434467713607 10:-0.479983558562028 13:0.5964583244706974|0:0.7635548572250523 3:-0.17439993775191964 4:0.9816581670184654|-0.018943979010520362
0:-0.28630721847491103 6:-0.01469139119123164 10:0.7531223266385443 12:-0.3325027131068824 13:-0.7954189682767113|1:-0.2968185227295078 2:0.31260836696169836 3:-0.344142893833831|-0.13345899526769656
5:0.6351933382156638 11:0.41896348554012386|0:-0.9345536519912521|-0.43634749170657705
0:0.47175531560077366 4:-0.5144099945688732 8:0.7299388233141506 10:0.9363171844354818|0:0.11615790965548611 1:-0.7314108757444033 2:0.8962817309044127 3:-0.04085870537430025 4:-0.9830379814897189 5:0.818151596614987|-0.9624333943951198
13:0.9855281756299588|2:0.5059103798980242|0.38382735222377407
0:0.8819401445196502 1:-0.5449194396612826 2:-0.9985386541386109 3:-0.7957881984332608 4:0.32154580602238036 7:0.9886776896582576 8:-0.664751225928049 9:0.808960325802103 10:0.48533596275520985 11:-0.30813923670018895 12:0.18185815737778666 13:0.7931654230260152|0:-0.5217985804053227 1:0.6599800343907227 2:-0.9906029577898166 3:0.07481850365141263 4:0.06357297326529765 5:-0.21177109105170633|0.9624007177353127
0:-0.33968733012751884 1:0.5931360185223533 5:-0.42691460500733835 6:-0.20938390272274332 9:0.23136434467713607 10:-0.479983558562028 13:0.5964583244706974|0:0.7635548572250523 3:-0.17439993775191964 4:0.9816581670184654|-0.018943979010520362
0:-0.28630721847491103 6:-0.01469139119123164 10:0.7531223266385443 12:-0.3325027131068824 13:-0.7954189682767113|1:-0.2968185227295078 2:0.31260836696169836 3:-0.344142893833831|-0.13345899526769656
0:0.5927990445887867 1:-0.6492498314490349 2:0.1590399332794321 3:0.9622653190279244 4:-0.8468430397855429 5:-0.2864303703398746 6:0.5700742483572219 7:-0.017238007167823977 8:-0.48899478169994426 9:-0.8812999466191201 10:0.7226466060129666 11:0.007350370103574422 12:-0.399248988928123 13:-0.6138762137655439|3:0.3979190814978193|-0.859491690567705
1:0.5994833273543954 2:0.030080241283796383 3:-0.28700774206460455 4:-0.3217162863913726 5:0.029800560771280793 6:-0.42499043875079734 7:0.19916672081149245 8:-0.4214407973405563 9:0.8253814478369674 10:-0.27464163438714373 11:-0.8718779914260919 12:-0.4924269177123969 13:-0.1417299960903825|0:-0.9179349811174942 1:-0.7212237312961848 2:-0.27294572631282943 3:0.7618223256074894 4:0.6858118933802888 5:-0.06957619448596641|-0.747459862588054
2:-0.24317559943375722 5:-0.3931571602372599 6:0.17185625380338365 8:-0.012803035601467116 9:-0.7350538043219195 10:-0.5640179555025213 11:0.7817941016631658 12:-0.6246359581632819 13:-0.12857097165343434|0:0.08710206517256402 1:0.6815693547144812 2:-0.9853511573728408 3:0.6599824897615543 4:0.7912579466627714 5:-0.9619034703526896|0.07176788598789563
0:0.6394348009793882 1:-0.7781052682129285 2:0.18567863050486877 3:0.9568248452936299 4:-0.7266181139893921 5:-0.8062359432523798 6:0.07726156896585512 9:0.7591662304984497 10:0.6341299734350843 11:0.9768699542131745 12:-0.14287215976630896 13:-0.11634548076662243|1:-0.6346739327637445|0.6916345665865473
0:-0.44995504456450996 1:-0.30339243973603336 2:-0.2755381489323664 3:-0.22648351776422304 4:0.9304582231777518 5:0.5268612009588944 6:-0.572499971473113 7:0.6860180917101497 8:0.9929562333197357 9:-0.1917854981223187 10:-0.7763413292961279 11:-0.5301365755150613 12:-0.785264043002986 13:0.9931234770331288|0:-0.8261990804337679 1:-0.435559383352906 2:0.15628787971359004 4:0.4594487769653015 5:-0.18511598328651102|-0.4270964714869998
9:0.913874297278632 10:-0.0016150711317372002|0:0.3012339673767004 2:-0.4993056519651802 4:0.1302962926287301 5:0.12242894337702515|0.2203212335051834
2:-0.6220643514375022 6:-0.9980648199058813 8:0.8339619124578388 9:-0.5023573171145873|1:0.5349351778068747 2:-0.6810243992237364 4:-0.5754396723377277 5:-0.0739729377412599|-0.8270125312414403
1:-0.9723529749133701 2:-0.2830131205689833 3:0.08651050158601237 4:0.46823432290530476 7:-0.7458107343970902 8:0.6912881378831803 10:0.9109489737043084 11:0.9052862954162342 12:-0.00391621947740628 13:0.4176051993466541|0:0.77886435984136 1:0.6542458361335883 3:0.252151339715325 4:-0.5087259081616002 5:0.4172594957055409|0.8741642324694392
0:0.03798595876456701 2:-0.8260961207015789 3:-0.9174214822258757 4:0.18622705591691457 5:0.9032951809936662 6:0.5772259098035926 7:0.8726560806772401 8:0.42172907005235594 9:0.45381153744968805 10:-0.48756650647043476 13:0.9913604526590776|3:0.43841455376961935|0.3298456879170677
2:-0.6862149533851793 3:0.7806732264910667 4:-0.14857473449038694 5:0.16196876614528377 6:0.9292014746256312 7:-0.25889117792665106 8:0.7598804628021161 10:-0.8993228092083795 11:-0.7628079569231585 12:0.3837766810582848|0:-0.1777721272276157 3:-0.6833286288482437 4:-0.4565710578860702|0.25999104138645457
3:0.01742708838870155|0:-0.044160919135185495 1:-0.4993433554372765 2:-0.20647605040850703 3:-0.3998174595897994 4:0.15972773830164866|-0.9160085692801045
7:0.26840901892928337|4:0.9476631367691641|0.1661505975577542
0:-0.9365900151165035 1:0.9262689779030702 2:-0.49035909057560945 3:0.4584184849064086 5:-0.8610303630198622 6:0.42095819236080256 7:0.3176462449574391 8:-0.6491964915469768 9:-0.7046044741173683 11:-0.7820560937009743 12:-0.34964248249135454 13:-0.43839124043430644|1:0.21617067514458488 2:-0.46575515477634444 3:0.9843259057746943 4:-0.6666907826213273|0.5865079762419085
0:0.5218827936822208 8:-0.7170747958431611 9:-0.1367976651410121 11:0.9261734244155371 13:-0.8086084623096299|0:-0.8210964355574648 4:-0.9438413978595833|-0.718636067112512
5:0.6351933382156638 11:0.41896348554012386|0:-0.9345536519912521|-0.43634749170657705
0:0.47175531560077366 4:-0.5144099945688732 8:0.7299388233141506 10:0.9363171844354818|0:0.11615790965548611 1:-0.7314108757444033 2:0.8962817309044127 3:-0.04085870537430025 4:-0.9830379814897189 5:0.818151596614987|-0.9624333943951198
13:0.9855281756299588|2:0.5059103798980242|0.38382735222377407
0:0.8819401445196502 1:-0.5449194396612826 2:-0.9985386541386109 3:-0.7957881984332608 4:0.32154580602238036 7:0.9886776896582576 8:-0.664751225928049 9:0.808960325802103 10:0.48533596275520985 11:-0.30813923670018895 12:0.18185815737778666 13:0.7931654230260152|0:-0.5217985804053227 1:0.6599800343907227 2:-0.9906029577898166 3:0.07481850365141263 4:0.06357297326529765 5:-0.21177109105170633|0.9624007177353127
0:-0.33968733012751884 1:0.5931360185223533 5:-0.42691460500733835 6:-0.20938390272274332 9:0.23136434467713607 10:-0.479983558562028 13:0.5964583244706974|0:0.7635548572250523 3:-0.17439993775191964 4:0.9816581670184654|-0.018943979010520362
0:-0.28630721847491103 6:-0.01469139119123164 10:0.7531223266385443 12:-0.3325027131068824 13:-0.7954189682767113|1:-0.2968185227295078 2:0.31260836696169836 3:-0.344142893833831|-0.13345899526769656
5:0.6351933382156638 11:0.41896348554012386|0:-0.9345536519912521|-0.43634749170657705
0:0.47175531560077366 4:-0.5144099945688732 8:0.7299388233141506 10:0.9363171844354818|0:0.11615790965548611 1:-0.7314108757444033 2:0.8962817309044127 3:-0.04085870537430025 4:-0.9830379814897189 5:0.818151596614987|-0.9624333943951198
13:0.9855281756299588|2:0.5059103798980242|0.38382735222377407
0:0.8819401445196502 1:-0.5449194396612826 2:-0.9985386541386109 3:-0.7957881984332608 4:0.32154580602238036 7:0.9886776896582576 8:-0.664751225928049 9:0.808960325802103 10:0.48533596275520985 11:-0.30813923670018895 12:0.18185815737778666 13:0.7931654230260152|0:-0.5217985804053227 1:0.6599800343907227 2:-0.9906029577898166 3:0.07481850365141263 4:0.06357297326529765 5:-0.21177109105170633|0.9624007177353127
0:-0.33968733012751884 1:0.5931360185223533 5:-0.42691460500733835 6:-0.20938390272274332 9:0.23136434467713607 10:-0.479983558562028 13:0.5964583244706974|0:0.7635548572250523 3:-0.17439993775191964 4:0.9816581670184654|-0.018943979010520362
0:-0.28630721847491103 6:-0.01469139119123164 10:0.7531223266385443 12:-0.3325027131068824 13:-0.7954189682767113|1:-0.2968185227295078 2:0.31260836696169836 3:-0.344142893833831|-0.13345899526769656
5:0.6351933382156638 11:0.41896348554012386|0:-0.9345536519912521|-0.43634749170657705
0:0.47175531560077366 4:-0.5144099945688732 8:0.7299388233141506 10:0.9363171844354818|0:0.11615790965548611 1:-0.7314108757444033 2:0.8962817309044127 3:-0.04085870537430025 4:-0.9830379814897189 5:0.818151596614987|-0.9624333943951198
13:0.9855281756299588|2:0.5059103798980242|0.38382735222377407
0:0.8819401445196502 1:-0.5449194396612826 2:-0.9985386541386109 3:-0.7957881984332608 4:0.32154580602238036 7:0.9886776896582576 8:-0.664751225928049 9:0.808960325802103 10:0.48533596275520985 11:-0.30813923670018895 12:0.18185815737778666 13:0.7931654230260152|0:-0.5217985804053227 1:0.6599800343907227 2:-0.9906029577898166 3:0.07481850365141263 4:0.06357297326529765 5:-0.21177109105170633|0.9624007177353127
0:-0.33968733012751884 1:0.5931360185223533 5:-0.42691460500733835 6:-0.20938390272274332 9:0.23136434467713607 10:-0.479983558562028 13:0.5964583244706974|0:0.7635548572250523 3:-0.17439993775191964 4:0.9816581670184654|-0.018943979010520362
0:-0.28630721847491103 6:-0.01469139119123164 10:0.7531223266385443 12:-0.3325027131068824 13:-0.7954189682767113|1:-0.2968185227295078 2:0.31260836696169836 3:-0.344142893833831|-0.13345899526769656
0:0.5927990445887867 1:-0.6492498314490349 2:0.1590399332794321 3:0.9622653190279244 4:-0.8468430397855429 5:-0.2864303703398746 6:0.5700742483572219 7:-0.017238007167823977 8:-0.48899478169994426 9:-0.8812999466191201 10:0.7226466060129666 11:0.007350370103574422 12:-0.399248988928123 13:-0.6138762137655439|3:0.3979190814978193|-0.859491690567705
1:0.5994833273543954 2:0.030080241283796383 3:-0.28700774206460455 4:-0.3217162863913726 5:0.029800560771280793 6:-0.42499043875079734 7:0.19916672081149245 8:-0.4214407973405563 9:0.8253814478369674 10:-0.27464163438714373 11:-0.8718779914260919 12:-0.4924269177123969 13:-0.1417299960903825|0:-0.9179349811174942 1:-0.7212237312961848 2:-0.27294572631282943 3:0.7618223256074894 4:0.6858118933802888 5:-0.06957619448596641|-0.747459862588054
2:-0.24317559943375722 5:-0.3931571602372599 6:0.17185625380338365 8:-0.012803035601467116 9:-0.7350538043219195 10:-0.5640179555025213 11:0.7817941016631658 12:-0.6246359581632819 13:-0.12857097165343434|0:0.08710206517256402 1:0.6815693547144812 2:-0.9853511573728408 3:0.6599824897615543 4:0.7912579466627714 5:-0.9619034703526896|0.07176788598789563
0:0.6394348009793882 1:-0.7781052682129285 2:0.18567863050486877 3:0.9568248452936299 4:-0.7266181139893921 5:-0.8062359432523798 6:0.07726156896585512 9:0.7591662304984497 10:0.6341299734350843 11:0.9768699542131745 12:-0.14287215976630896 13:-0.11634548076662243|1:-0.6346739327637445|0.6916345665865473
0:-0.44995504456450996 1:-0.30339243973603336 2:-0.2755381489323664 3:-0.22648351776422304 4:0.9304582231777518 5:0.5268612009588944 6:-0.572499971473113 7:0.6860180917101497 8:0.9929562333197357 9:-0.1917854981223187 10:-0.7763413292961279 11:-0.5301365755150613 12:-0.785264043002986 13:0.9931234770331288|0:-0.8261990804337679 1:-0.435559383352906 2:0.15628787971359004 4:0.4594487769653015 5:-0.18511598328651102|-0.4270964714869998
9:0.913874297278632 10:-0.0016150711317372002|0:0.3012339673767004 2:-0.4993056519651802 4:0.1302962926287301 5:0.12242894337702515|0.2203212335051834
5:0.6351933382156638 11:0.41896348554012386|0:-0.9345536519912521|-0.43634749170657705
0:0.47175531560077366 4:-0.5144099945688732 8:0.7299388233141506 10:0.9363171844354818|0:0.11615790965548611 1:-0.7314108757444033 2:0.8962817309044127 3:-0.04085870537430025 4:-0.9830379814897189 5:0.818151596614987|-0.9624333943951198
13:0.9855281756299588|2:0.5059103798980242|0.38382735222377407
0:0.8819401445196502 1:-0.5449194396612826 2:-0.9985386541386109 3:-0.7957881984332608 4:0.32154580602238036 7:0.9886776896582576 8:-0.664751225928049 9:0.808960325802103 10:0.48533596275520985 11:-0.30813923670018895 12:0.18185815737778666 13:0.7931654230260152|0:-0.5217985804053227 1:0.6599800343907227 2:-0.9906029577898166 3:0.07481850365141263 4:0.06357297326529765 5:-0.21177109105170633|0.9624007177353127
0:-0.33968733012751884 1:0.5931360185223533 5:-0.42691460500733835 6:-0.20938390272274332 9:0.23136434467713607 10:-0.479983558562028 13:0.5964583244706974|0:0.7635548572250523 3:-0.17439993775191964 4:0.9816581670184654|-0.018943979010520362
0:-0.28630721847491103 6:-0.01469139119123164 10:0.7531223266385443 12:-0.3325027131068824 13:-0.7954189682767113|1:-0.2968185227295078 2:0.31260836696169836 3:-0.344142893833831|-0.13345899526769656
5:0.6351933382156638 11:0.41896348554012386|0:-0.9345536519912521|-0.43634749170657705
0:0.47175531560077366 4:-0.5144099945688732 8:0.7299388233141506 10:0.9363171844354818|0:0.11615790965548611 1:-0.7314108757444033 2:0.8962817309044127 3:-0.04085870537430025 4:-0.9830379814897189 5:0.818151596614987|-0.9624333943951198
13:0.9855281756299588|2:0.5059103798980242|0.38382735222377407
0:0.8819401445196502 1:-0.5449194396612826 2:-0.9985386541386109 3:-0.7957881984332608 4:0.32154580602238036 7:0.9886776896582576 8:-0.664751225928049 9:0.808960325802103 10:0.48533596275520985 11:-0.30813923670018895 12:0.18185815737778666 13:0.7931654230260152|0:-0.5217985804053227 1:0.6599800343907227 2:-0.9906029577898166 3:0.07481850365141263 4:0.06357297326529765 5:-0.21177109105170633|0.9624007177353127
0:-0.33968733012751884 1:0.5931360185223533 5:-0.42691460500733835 6:-0.20938390272274332 9:0.23136434467713607 10:-0.479983558562028 13:0.5964583244706974|0:0.7635548572250523 3:-0.17439993775191964 4:0.9816581670184654|-0.018943979010520362
0:-0.28630721847491103 6:-0.01469139119123164 10:0.7531223266385443 12:-0.3325027131068824 13:-0.7954189682767113|1:-0.2968185227295078 2:0.31260836696169836 3:-0.344142893833831|-0.13345899526769656
5:0.6351933382156638 11:0.41896348554012386|0:-0.9345536519912521|-0.43634749170657705
0:0.47175531560077366 4:-0.5144099945688732 8:0.7299388233141506 10:0.9363171844354818|0:0.11615790965548611 1:-0.7314108757444033 2:0.8962817309044127 3:-0.04085870537430025 4:-0.9830379814897189 5:0.818151596614987|-0.9624333943951198
13:0.9855281756299588|2:0.5059103798980242|0.38382735222377407
0:0.8819401445196502 1:-0.5449194396612826 2:-0.9985386541386109 3:-0.7957881984332608 4:0.32154580602238036 7:0.9886776896582576 8:-0.664751225928049 9:0.808960325802103 10:0.48533596275520985 11:-0.30813923670018895 12:0.18185815737778666 13:0.7931654230260152|0:-0.5217985804053227 1:0.6599800343907227 2:-0.9906029577898166 3:0.07481850365141263 4:0.06357297326529765 5:-0.21177109105170633|0.9624007177353127
0:-0.33968733012751884 1:0.5931360185223533 5:-0.42691460500733835 6:-0.20938390272274332 9:0.23136434467713607 10:-0.479983558562028 13:0.5964583244706974|0:0.7635548572250523 3:-0.17439993775191964 4:0.9816581670184654|-0.018943979010520362
0:-0.28630721847491103 6:-0.01469139119123164 10:0.7531223266385443 12:-0.3325027131068824 13:-0.7954189682767113|1:-0.2968185227295078 2:0.31260836696169836 3:-0.344142893833831|-0.13345899526769656
5:0.6351933382156638 11:0.41896348554012386|0:-0.9345536519912521|-0.43634749170657705
0:0.47175531560077366 4:-0.5144099945688732 8:0.7299388233141506 10:0.9363171844354818|0:0.11615790965548611 1:-0.7314108757444033 2:0.8962817309044127 3:-0.04085870537430025 4:-0.9830379814897189 5:0.818151596614987|-0.9624333943951198
13:0.9855281756299588|2:0.5059103798980242|0.38382735222377407
0:0.8819401445196502 1:-0.5449194396612826 2:-0.9985386541386109 3:-0.7957881984332608 4:0.32154580602238036 7:0.9886776896582576 8:-0.664751225928049 9:0.808960325802103 10:0.48533596275520985 11:-0.30813923670018895 12:0.18185815737778666 13:0.7931654230260152|0:-0.5217985804053227 1:0.6599800343907227 2:-0.9906029577898166 3:0.07481850365141263 4:0.06357297326529765 5:-0.21177109105170633|0.9624007177353127
0:-0.33968733012751884 1:0.5931360185223533 5:-0.42691460500733835 6:-0.20938390272274332 9:0.23136434467713607 10:-0.479983558562028 13:0.5964583244706974|0:0.7635548572250523 3:-0.17439993775191964 4:0.9816581670184654|-0.018943979010520362
0:-0.28630721847491103 6:-0.01469139119123164 10:0.7531223266385443 12:-0.3325027131068824 13:-0.7954189682767113|1:-0.2968185227295078 2:0.31260836696169836 3:-0.344142893833831|-0.13345899526769656
5:0.6351933382156638 11:0.41896348554012386|0:-0.9345536519912521|-0.43634749170657705
0:0.47175531560077366 4:-0.5144099945688732 8:0.7299388233141506 10:0.9363171844354818|0:0.11615790965548611 1:-0.7314108757444033 2:0.8962817309044127 3:-0.04085870537430025 4:-0.9830379814897189 5:0.818151596614987|-0.9624333943951198
13:0.9855281756299588|2:0.5059103798980242|0.38382735222377407
0:0.8819401445196502 1:-0.5449194396612826 2:-0.9985386541386109 3:-0.7957881984332608 4:0.32154580602238036 7:0.9886776896582576 8:-0.664751225928049 9:0.808960325802103 10:0.48533596275520985 11:-0.30813923670018895 12:0.18185815737778666 13:0.7931654230260152|0:-0.5217985804053227 1:0.6599800343907227 2:-0.9906029577898166 3:0.07481850365141263 4:0.06357297326529765 5:-0.21177109105170633|0.9624007177353127
0:-0.33968733012751884 1:0.5931360185223533 5:-0.42691460500733835 6:-0.20938390272274332 9:0.23136434467713607 10:-0.479983558562028 13:0.5964583244706974|0:0.7635548572250523 3:-0.17439993775191964 4:0.9816581670184654|-0.018943979010520362
0:-0.28630721847491103 6:-0.01469139119123164 10:0.7531223266385443 12:-0.3325027131068824 13:-0.7954189682767113|1:-0.2968185227295078 2:0.31260836696169836 3:-0.344142893833831|-0.13345899526769656
0:0.5927990445887867 1:-0.6492498314490349 2:0.1590399332794321 3:0.9622653190279244 4:-0.8468430397855429 5:-0.2864303703398746 6:0.5700742483572219 7:-0.017238007167823977 8:-0.48899478169994426 9:-0.8812999466191201 10:0.7226466060129666 11:0.007350370103574422 12:-0.399248988928123 13:-0.6138762137655439|3:0.3979190814978193|-0.859491690567705
1:0.5994833273543954 2:0.030080241283796383 3:-0.28700774206460455 4:-0.3217162863913726 5:0.029800560771280793 6:-0.42499043875079734 7:0.19916672081149245 8:-0.4214407973405563 9:0.8253814478369674 10:-0.27464163438714373 11:-0.8718779914260919 12:-0.4924269177123969 13:-0.1417299960903825|0:-0.9179349811174942 1:-0.7212237312961848 2:-0.27294572631282943 3:0.7618223256074894 4:0.6858118933802888 5:-0.06957619448596641|-0.747459862588054
2:-0.24317559943375722 5:-0.3931571602372599 6:0.17185625380338365 8:-0.012803035601467116 9:-0.7350538043219195 10:-0.5640179555025213 11:0.7817941016631658 12:-0.6246359581632819 13:-0.12857097165343434|0:0.08710206517256402 1:0.6815693547144812 2:-0.9853511573728408 3:0.6599824897615543 4:0.7912579466627714 5:-0.9619034703526896|0.07176788598789563
0:0.6394348009793882 1:-0.7781052682129285 2:0.18567863050486877 3:0.9568248452936299 4:-0.7266181139893921 5:-0.8062359432523798 6:0.07726156896585512 9:0.7591662304984497 10:0.6341299734350843 11:0.9768699542131745 12:-0.14287215976630896 13:-0.11634548076662243|1:-0.6346739327637445|0.6916345665865473
0:-0.44995504456450996 1:-0.30339243973603336 2:-0.2755381489323664 3:-0.22648351776422304 4:0.9304582231777518 5:0.5268612009588944 6:-0.572499971473113 7:0.6860180917101497 8:0.9929562333197357 9:-0.1917854981223187 10:-0.7763413292961279 11:-0.5301365755150613 12:-0.785264043002986 13:0.9931234770331288|0:-0.8261990804337679 1:-0.435559383352906 2:0.15628787971359004 4:0.4594487769653015 5:-0.18511598328651102|-0.4270964714869998
9:0.913874297278632 10:-0.0016150711317372002|0:0.3012339673767004 2:-0.4993056519651802 4:0.1302962926287301 5:0.12242894337702515|0.2203212335051834