0:-0.2467572063003325 1:0.295600285114374 3:-0.6946444393070457 4:-0.995561626327817 5:-0.8323862115009296 9:-0.6812521496081774 10:0.4478705983275162 11:-0.8861546071669295 13:-0.5007334833498166|0:-0.19622101567850436 1:0.5206076551133967 2:-0.5229470612210702 4:0.5317826106927905 5:-0.12891932084260205|-0.4619134224826067
3:0.7461992645747804 7:-0.7112010076276506 9:-0.9827421156051639 11:-0.7164588136505994|2:-0.9232045397804631 3:-0.24533871499060322 5:-0.2447168974966013|0.43407681350996064
10:-0.8790029247265913|2:0.08797681259064771|0.4522067221714505
1:0.7079098997480866 2:-0.7863585659820275 5:0.37391878030693326 6:0.37721020910733305 9:0.3383181298954274|0:0.004310552796403133 1:-0.09927870095893743 4:-0.8544620040346521 5:-0.5734370831279039|0.20780616522969098
0:0.6479710754322239 1:-0.4639495931065206 2:0.7084222544264844 3:-0.40879100925773615 4:0.8883012878518786 5:0.1422616445757936 6:0.14942720558064826 8:0.07952977449431997 9:-0.6128238509634321 10:-0.5922057590510741 11:-0.9780199841026694|3:0.7421936763069845|-0.7608672705197757
8:-0.3152093022353043|0:0.3907369305599626 1:0.2299128461751323 3:0.932727864254284|-0.12113561391212091
0:0.32977998955584886 7:-0.3615677480139786|4:-0.627624086687826|0.47818837314854634
0:0.35978572718257085 1:0.24847693987511899 2:0.8977161341634663 3:-0.7950869447725786 4:-0.7985348079517549 5:-0.02885622949828215 6:-0.7796916113366037 7:0.6425050803245589 8:-0.3085522825946163 9:0.2522372113323186 11:-0.31278027180546186 13:-0.5605685374759611|0:-0.9781130622679005 1:-0.29639976825218917 4:-0.38558056295767407 5:0.4012646213210782|0.03219922025208932
0:0.41056717106006424 1:-0.45055969546652164 2:-0.1915334695547376 3:-0.6628754229825362 4:0.09951021656701653 5:-0.5913188050124449 6:-0.1369093393348242 7:-0.927687889724353 8:-0.8481382467901587 9:-0.5565289840277545 10:0.022044991858820362 11:0.26063049411593675 12:-0.8897189157448774|2:-0.8340004705129698 3:-0.6532663301552035 5:-0.2748856147781997|-0.437357088770715
3:0.806697146880597 6:-0.4972087833630685 9:0.9759704725696028 10:-0.678027258546539 12:0.5554386262007591|1:0.04853612310944522 4:-0.43878906121487626|0.27009312064789137